Exp06/quartus2/simulation/qsim/Exp06.msim.vcd
$comment
	File created using the following command:
		vcd file Exp06.msim.vcd -direction
$end
$date
	Fri Oct 08 15:15:43 2021
$end
$version
	ModelSim Version 10.1d
$end
$timescale
	1ps
$end
$scope module topic__2_1_vlg_vec_tst $end
$var reg 1 ! A $end
$var reg 1 " B $end
$var reg 1 # Cin $end
$var wire 1 $ Cout $end
$var wire 1 % S $end
$var wire 1 & sampler $end
$scope module i1 $end
$var wire 1 ' gnd $end
$var wire 1 ( vcc $end
$var wire 1 ) unknown $end
$var tri1 1 * devclrn $end
$var tri1 1 + devpor $end
$var tri1 1 , devoe $end
$var wire 1 - A~combout $end
$var wire 1 . Cin~combout $end
$var wire 1 / B~combout $end
$var wire 1 0 inst|Mux0~0_combout $end
$var wire 1 1 inst26|Mux0~0_combout $end
$upscope $end
$upscope $end
$enddefinitions $end
#0
$dumpvars
0!
0"
0#
x$
x%
x&
0'
1(
x)
1*
1+
1,
0-
0.
0/
x0
x1
$end
#1322
01
#4688
0$
#5081
00
#8436
0%
#40000
1#
0&
#40840
1.
#45921
10
#49276
1%
#80000
1"
0#
1&
#80840
0.
#80979
1/
#81992
11
00
#85347
0%
#85358
1$
#85916
01
#85921
10
#89276
1%
#89282
0$
#120000
1#
0&
#120840
1.
#125916
11
#125921
00
#129276
0%
#129282
1$
#160000
1!
0"
0#
1&
#160840
0.
#160979
0/
1-
#165916
01
#165921
10
#169276
1%
#169282
0$
#200000
1#
0&
#200840
1.
#205916
11
#205921
00
#209276
0%
#209282
1$
#240000
1"
0#
1&
#240840
0.
#240979
1/
#241992
10
#245347
1%
#245921
00
#249276
0%
#280000
1#
0&
#280840
1.
#285921
10
#289276
1%
#320000
0!
0"
0#
1&
#320840
0.
#320979
0/
0-
#322301
01
#325667
0$
#325921
00
#329276
0%
#360000
1#
0&
#360840
1.
#365921
10
#369276
1%
#400000
1"
0#
1&
#400840
0.
#400979
1/
#401992
11
00
#405347
0%
#405358
1$
#405916
01
#405921
10
#409276
1%
#409282
0$
#440000
1#
0&
#440840
1.
#445916
11
#445921
00
#449276
0%
#449282
1$
#480000
1!
0"
0#
1&
#480840
0.
#480979
0/
1-
#485916
01
#485921
10
#489276
1%
#489282
0$
#520000
1#
0&
#520840
1.
#525916
11
#525921
00
#529276
0%
#529282
1$
#560000
1"
0#
1&
#560840
0.
#560979
1/
#561992
10
#565347
1%
#565921
00
#569276
0%
#600000
1#
0&
#600840
1.
#605921
10
#609276
1%
#640000
0!
0"
0#
1&
#640840
0.
#640979
0/
0-
#642301
01
#645667
0$
#645921
00
#649276
0%
#680000
1#
0&
#680840
1.
#685921
10
#689276
1%
#720000
1"
0#
1&
#720840
0.
#720979
1/
#721992
11
00
#725347
0%
#725358
1$
#725916
01
#725921
10
#729276
1%
#729282
0$
#760000
1#
0&
#760840
1.
#765916
11
#765921
00
#769276
0%
#769282
1$
#800000
1!
0"
0#
1&
#800840
0.
#800979
0/
1-
#805916
01
#805921
10
#809276
1%
#809282
0$
#840000
1#
0&
#840840
1.
#845916
11
#845921
00
#849276
0%
#849282
1$
#880000
1"
0#
1&
#880840
0.
#880979
1/
#881992
10
#885347
1%
#885921
00
#889276
0%
#920000
1#
0&
#920840
1.
#925921
10
#929276
1%
#960000
0!
0"
0#
1&
#960840
0.
#960979
0/
0-
#962301
01
#965667
0$
#965921
00
#969276
0%
