Exp06/quartus/simulation/qsim/topic__2_1.msim.vcd
$comment
	File created using the following command:
		vcd file topic__2_1.msim.vcd -direction
$end
$date
	Thu Oct  7 19:59:43 2021
$end
$version
	ModelSim Version 2020.1
$end
$timescale
	1ps
$end

$scope module topic__2_2_vlg_vec_tst $end
$var reg 1 ! A $end
$var reg 1 " B $end
$var reg 1 # Cin $end
$var wire 1 $ Cout $end
$var wire 1 % S $end

$scope module i1 $end
$var wire 1 & gnd $end
$var wire 1 ' vcc $end
$var wire 1 ( unknown $end
$var tri1 1 ) devclrn $end
$var tri1 1 * devpor $end
$var tri1 1 + devoe $end
$var wire 1 , ~QUARTUS_CREATED_GND~I_combout $end
$var wire 1 - A~input_o $end
$var wire 1 . Cin~input_o $end
$var wire 1 / B~input_o $end
$var wire 1 0 inst|Add1~0_combout $end
$var wire 1 1 inst|Add1~1_combout $end
$upscope $end
$upscope $end
$enddefinitions $end
#0
$dumpvars
0!
0"
0#
0$
0%
0&
1'
x(
1)
1*
1+
0,
0-
0.
0/
00
01
$end
#20000
1#
1.
11
1%
#40000
1"
0#
1/
0.
#60000
1#
1.
01
10
1$
0%
#80000
1!
0"
0#
1-
0/
0.
11
00
0$
1%
#100000
1#
1.
01
10
1$
0%
#120000
1"
0#
1/
0.
#140000
1#
1.
11
1%
#160000
0!
0"
0#
0-
0/
0.
01
00
0$
0%
#180000
1#
1.
11
1%
#200000
1"
0#
1/
0.
#220000
1#
1.
01
10
1$
0%
#240000
1!
0"
0#
1-
0/
0.
11
00
0$
1%
#260000
1#
1.
01
10
1$
0%
#280000
1"
0#
1/
0.
#300000
1#
1.
11
1%
#320000
0!
0"
0#
0-
0/
0.
01
00
0$
0%
#340000
1#
1.
11
1%
#360000
1"
0#
1/
0.
#380000
1#
1.
01
10
1$
0%
#400000
1!
0"
0#
1-
0/
0.
11
00
0$
1%
#420000
1#
1.
01
10
1$
0%
#440000
1"
0#
1/
0.
#460000
1#
1.
11
1%
#480000
0!
0"
0#
0-
0/
0.
01
00
0$
0%
#500000
1#
1.
11
1%
#520000
1"
0#
1/
0.
#540000
1#
1.
01
10
1$
0%
#560000
1!
0"
0#
1-
0/
0.
11
00
0$
1%
#580000
1#
1.
01
10
1$
0%
#600000
1"
0#
1/
0.
#620000
1#
1.
11
1%
#640000
0!
0"
0#
0-
0/
0.
01
00
0$
0%
#660000
1#
1.
11
1%
#680000
1"
0#
1/
0.
#700000
1#
1.
01
10
1$
0%
#720000
1!
0"
0#
1-
0/
0.
11
00
0$
1%
#740000
1#
1.
01
10
1$
0%
#760000
1"
0#
1/
0.
#780000
1#
1.
11
1%
#800000
0!
0"
0#
0-
0/
0.
01
00
0$
0%
#820000
1#
1.
11
1%
#840000
1"
0#
1/
0.
#860000
1#
1.
01
10
1$
0%
#880000
1!
0"
0#
1-
0/
0.
11
00
0$
1%
#900000
1#
1.
01
10
1$
0%
#920000
1"
0#
1/
0.
#940000
1#
1.
11
1%
#960000
0!
0"
0#
0-
0/
0.
01
00
0$
0%
#980000
1#
1.
11
1%
